<svg width="88" height="88" viewBox="0 0 88 88" fill="none" xmlns="http://www.w3.org/2000/svg">
<circle cx="44" cy="44" r="44" fill="#F3FBDC"/>
<path d="M37.2 47.2H29.2C27.4327 47.2 26 48.6326 26 50.4V56.8C26 58.5673 27.4327 60 29.2 60H37.2C38.9673 60 40.4 58.5673 40.4 56.8V50.4C40.4 48.6326 38.9673 47.2 37.2 47.2Z" stroke="#8FAD38" stroke-width="1.25" stroke-linecap="round" stroke-linejoin="round"/>
<path d="M59.6004 47.2H51.6004C49.8331 47.2 48.4004 48.6326 48.4004 50.4V56.8C48.4004 58.5673 49.8331 60 51.6004 60H59.6004C61.3677 60 62.8004 58.5673 62.8004 56.8V50.4C62.8004 48.6326 61.3677 47.2 59.6004 47.2Z" stroke="#8FAD38" stroke-width="1.25" stroke-linecap="round" stroke-linejoin="round"/>
<path d="M48.4014 52C48.4014 50.9391 47.9799 49.9217 47.2298 49.1716C46.4797 48.4214 45.4622 48 44.4014 48C43.3405 48 42.3231 48.4214 41.5729 49.1716C40.8228 49.9217 40.4014 50.9391 40.4014 52" stroke="#8FAD38" stroke-width="1.25" stroke-linecap="round" stroke-linejoin="round"/>
<path d="M26.002 50.4V32C26.002 30.9391 26.4234 29.9217 27.1735 29.1716C27.9237 28.4214 28.9411 28 30.002 28" stroke="#8FAD38" stroke-width="1.25" stroke-linecap="round" stroke-linejoin="round"/>
<path d="M62.8018 50.4V32C62.8018 30.9391 62.3803 29.9217 61.6302 29.1716C60.88 28.4214 59.8626 28 58.8018 28" stroke="#8FAD38" stroke-width="1.25" stroke-linecap="round" stroke-linejoin="round"/>
</svg>
