<svg width="88" height="88" viewBox="0 0 88 88" fill="none" xmlns="http://www.w3.org/2000/svg">
<circle cx="44" cy="44" r="44" fill="#F3FBDC"/>
<path d="M44.0004 59.1558L28.8487 43.5527C27.5199 42.2493 26.6406 40.5566 26.3385 38.72C26.0363 36.8833 26.3269 34.9981 27.1681 33.3377V33.3377C27.8163 32.0796 28.7511 30.9915 29.8973 30.1612C31.0434 29.3309 32.3687 28.7818 33.7661 28.558C35.1636 28.3342 36.5941 28.4422 37.9421 28.8731C39.2902 29.304 40.5181 30.0459 41.5266 31.0387L44.0004 33.2945L46.4741 31.0387C47.4828 30.0462 48.7107 29.3046 50.0587 28.8739C51.4067 28.4432 52.8371 28.3353 54.2344 28.559C55.6318 28.7828 56.957 29.3318 58.1031 30.1619C59.2492 30.992 60.1842 32.0799 60.8326 33.3377V33.3377C61.6733 34.9983 61.9637 36.8833 61.6615 38.7199C61.3594 40.5564 60.4804 42.2491 59.152 43.5527L44.0004 59.1558Z" stroke="#8FAD38" stroke-width="1.25" stroke-linecap="round" stroke-linejoin="round"/>
</svg>
