<svg width="88" height="88" viewBox="0 0 88 88" fill="none" xmlns="http://www.w3.org/2000/svg">
<circle cx="44" cy="44" r="44" fill="#F3FBDC"/>
<path d="M53.2791 33.1757C53.2791 32.9708 53.1977 32.7742 53.0528 32.6293C52.9079 32.4845 52.7114 32.4031 52.5064 32.4031H47.0982V26.9948C47.0982 26.7899 47.0168 26.5934 46.8719 26.4485C46.727 26.3036 46.5305 26.2222 46.3256 26.2222H41.6899C41.485 26.2222 41.2885 26.3036 41.1436 26.4485C40.9987 26.5934 40.9173 26.7899 40.9173 26.9948V32.4031H35.509C35.3041 32.4031 35.1076 32.4845 34.9627 32.6293C34.8178 32.7742 34.7364 32.9708 34.7364 33.1757V37.8113C34.7364 38.0162 34.8178 38.2128 34.9627 38.3577C35.1076 38.5025 35.3041 38.5839 35.509 38.5839H40.9173V43.9922C40.9173 44.1971 40.9987 44.3936 41.1436 44.5385C41.2885 44.6834 41.485 44.7648 41.6899 44.7648H46.3256C46.5305 44.7648 46.727 44.6834 46.8719 44.5385C47.0168 44.3936 47.0982 44.1971 47.0982 43.9922V38.5839H52.5064C52.7114 38.5839 52.9079 38.5025 53.0528 38.3577C53.1977 38.2128 53.2791 38.0162 53.2791 37.8113V33.1757Z" stroke="#8FAD38" stroke-width="1.25" stroke-linecap="round" stroke-linejoin="round"/>
<path d="M30.8733 61.7623L27.7675 57.8993C26.7737 56.6697 26.2287 55.1381 26.2222 53.5572V45.5375C26.2222 45.2318 26.2827 44.9291 26.4001 44.6469C26.5176 44.3647 26.6897 44.1085 26.9066 43.893C27.1234 43.6776 27.3808 43.5072 27.6638 43.3916C27.9468 43.2761 28.2498 43.2176 28.5555 43.2197V43.2197C29.1702 43.2197 29.7598 43.4639 30.1945 43.8985C30.6291 44.3332 30.8733 44.9228 30.8733 45.5375V51.5175" stroke="#8FAD38" stroke-width="1.25" stroke-linecap="round" stroke-linejoin="round"/>
<path d="M37.8269 61.546V56.9103C37.8296 55.5391 37.4205 54.1987 36.6525 53.0627L34.8909 50.4049C34.7383 50.1511 34.5355 49.9311 34.295 49.7583C34.0545 49.5856 33.7812 49.4636 33.492 49.4C33.2028 49.3364 32.9036 49.3324 32.6128 49.3883C32.3219 49.4441 32.0455 49.5587 31.8005 49.725C31.3636 50.0187 31.0488 50.4617 30.9152 50.9709C30.7815 51.48 30.838 52.0205 31.0742 52.491L33.1912 55.9677" stroke="#8FAD38" stroke-width="1.25" stroke-linecap="round" stroke-linejoin="round"/>
<path d="M57.1421 61.7623L60.2325 57.8683C61.2263 56.6387 61.7713 55.1072 61.7778 53.5262V45.5374C61.7778 44.9227 61.5336 44.3332 61.0989 43.8985C60.6642 43.4638 60.0747 43.2196 59.4599 43.2196C58.8452 43.2196 58.2557 43.4638 57.821 43.8985C57.3863 44.3332 57.1421 44.9227 57.1421 45.5374V51.5329" stroke="#8FAD38" stroke-width="1.25" stroke-linecap="round" stroke-linejoin="round"/>
<path d="M50.1886 61.546V56.9103C50.1859 55.5391 50.595 54.1987 51.363 53.0627L53.1245 50.4049C53.2772 50.1511 53.48 49.9311 53.7205 49.7583C53.961 49.5856 54.2342 49.4636 54.5235 49.4C54.8127 49.3364 55.1119 49.3324 55.4027 49.3883C55.6935 49.4441 55.9699 49.5587 56.215 49.725V49.725C56.6519 50.0187 56.9666 50.4617 57.1003 50.9709C57.234 51.48 57.1775 52.0205 56.9412 52.491L54.8243 55.9677" stroke="#8FAD38" stroke-width="1.25" stroke-linecap="round" stroke-linejoin="round"/>
</svg>
